verilog/mux21/mux21.vcd
$date
	Sat May 13 00:33:51 2023
$end
$version
	Icarus Verilog
$end
$timescale
	1ns
$end
$scope module mux21_tb $end
$var wire 1 ! f $end
$var reg 1 " in1 $end
$var reg 1 # in2 $end
$var reg 1 $ s $end
$scope module DUT $end
$var wire 1 " in1 $end
$var wire 1 # in2 $end
$var wire 1 $ s $end
$var reg 1 ! f $end
$upscope $end
$upscope $end
$enddefinitions $end
#0
$dumpvars
0$
0#
0"
0!
$end
#10
1$
#20
0$
1#
#30
1!
1$
#40
0$
0#
1"
#50
0!
1$
#60
1!
0$
1#
#70
1$
