verilog/pipeline example/pipe_ex.vcd
$date
	Wed May 17 20:22:10 2023
$end
$version
	Icarus Verilog
$end
$timescale
	1ns
$end
$scope module pipe_ex_tb $end
$var wire 10 ! F [9:0] $end
$var reg 10 " A [9:0] $end
$var reg 10 # B [9:0] $end
$var reg 10 $ C [9:0] $end
$var reg 10 % D [9:0] $end
$var reg 1 & clk $end
$scope module DUT $end
$var wire 10 ' A [9:0] $end
$var wire 10 ( B [9:0] $end
$var wire 10 ) C [9:0] $end
$var wire 10 * D [9:0] $end
$var wire 10 + F [9:0] $end
$var wire 1 & clk $end
$var reg 10 , L12_D [9:0] $end
$var reg 10 - L12_X1 [9:0] $end
$var reg 10 . L12_X2 [9:0] $end
$var reg 10 / L23_D [9:0] $end
$var reg 10 0 L23_X3 [9:0] $end
$var reg 10 1 L34_F [9:0] $end
$upscope $end
$upscope $end
$enddefinitions $end
#0
$dumpvars
bx 1
bx 0
bx /
bx .
bx -
bx ,
bx +
bx *
bx )
bx (
bx '
0&
bx %
bx $
bx #
bx "
bx !
$end
#5
b11 %
b11 *
b110 $
b110 )
b1100 #
b1100 (
b1010 "
b1010 '
#10
b11 ,
1&
#14
b11 .
b10110 -
#20
0&
#25
b101 $
b101 )
b1010 #
b1010 (
#30
b11 /
1&
#34
b11001 0
b10 .
b10100 -
#40
0&
#45
b100 %
b100 *
b1 $
b1 )
b1011 #
b1011 (
b10100 "
b10100 '
#50
b100 ,
1&
#54
b1111111101 .
b11111 -
b10110 0
#56
b1001011 !
b1001011 +
b1001011 1
#60
0&
#65
b10 %
b10 *
b1000 $
b1000 )
b1010 #
b1010 (
b1111 "
b1111 '
#70
b100 /
b10 ,
1&
#74
b11100 0
b110 .
b11001 -
#76
b1000010 !
b1000010 +
b1000010 1
#80
0&
#85
b0 %
b0 *
b101 $
b101 )
b1111 #
b1111 (
b1000 "
b1000 '
#90
b0 ,
b10 /
1&
#94
b101 .
b10111 -
b11111 0
#96
b1110000 !
b1110000 +
b1110000 1
#100
0&
#105
b11 %
b11 *
b10100 #
b10100 (
b1010 "
b1010 '
#110
b0 /
b11 ,
1&
#114
b11100 0
b10 .
b11110 -
#116
b111110 !
b111110 +
b111110 1
#120
0&
#125
b1 %
b1 *
b11110 $
b11110 )
b1010 #
b1010 (
#130
b1 ,
b11 /
1&
#134
b11101 .
b10100 -
b100000 0
#136
b0 !
b0 +
b0 1
#140
0&
#145
b100 %
b100 *
b10 $
b10 )
b1 #
b1 (
b11110 "
b11110 '
#150
b1 /
b100 ,
1&
#154
b110001 0
b1111111110 .
b11111 -
#156
b1100000 !
b1100000 +
b1100000 1
#160
0&
#170
b100 /
1&
#174
b11101 0
#176
b110001 !
b110001 +
b110001 1
#180
0&
#190
1&
#196
b1110100 !
b1110100 +
b1110100 1
