verilog/4 bit counter asychronous reset/counter4bit.vcd
$date
	Sat May 13 16:17:13 2023
$end
$version
	Icarus Verilog
$end
$timescale
	1ns
$end
$scope module counter4bit_tb $end
$var wire 4 ! count [3:0] $end
$var reg 1 " clk $end
$var reg 1 # rst $end
$scope module DUT $end
$var wire 1 " clk $end
$var wire 1 # rst $end
$var reg 4 $ count [3:0] $end
$upscope $end
$upscope $end
$enddefinitions $end
#0
$dumpvars
b0 $
1#
0"
b0 !
$end
#10
b1 !
b1 $
1"
0#
#20
0"
#30
b10 !
b10 $
1"
#40
0"
#50
b11 !
b11 $
1"
#60
0"
#70
b100 !
b100 $
1"
#80
0"
#90
b101 !
b101 $
1"
#100
0"
#110
b110 !
b110 $
1"
#120
0"
#130
b111 !
b111 $
1"
#140
0"
#150
b1000 !
b1000 $
1"
#160
0"
#170
b1001 !
b1001 $
1"
#180
0"
#190
b1010 !
b1010 $
1"
#200
0"
#210
b1011 !
b1011 $
1"
#220
0"
#230
b1100 !
b1100 $
1"
#240
0"
#250
b1101 !
b1101 $
1"
#260
0"
#270
b1110 !
b1110 $
1"
#280
0"
#290
b1111 !
b1111 $
1"
#300
0"
#310
b0 !
b0 $
1"
#320
0"
#330
b1 !
b1 $
1"
