verilog/4bitshiftregister/shiftreg_4bit.vcd
$date
	Mon May 15 15:40:32 2023
$end
$version
	Icarus Verilog
$end
$timescale
	1ns
$end
$scope module shiftreg_4bit_tb $end
$var wire 1 ! out $end
$var reg 1 " clk $end
$var reg 1 # clr $end
$var reg 1 $ in $end
$scope module DUT $end
$var wire 1 $ A $end
$var wire 1 # clear $end
$var wire 1 " clock $end
$var reg 1 % B $end
$var reg 1 & C $end
$var reg 1 ' D $end
$var reg 1 ! E $end
$upscope $end
$upscope $end
$enddefinitions $end
#0
$dumpvars
x'
x&
x%
x$
x#
0"
x!
$end
#2
0!
0'
0&
0%
0#
#5
1"
#7
1#
#10
0"
#12
0$
#15
1"
#20
0"
#25
1"
#30
0"
#32
1$
#35
1%
1"
#40
0"
#45
1&
1"
#50
0"
#52
0$
#55
0%
1'
1"
#60
0"
#65
0&
1!
1"
#70
0"
#72
1$
#75
1%
0'
1"
#80
0"
#85
1&
0!
1"
#90
0"
#95
1'
1"
#100
0"
#105
1!
1"
