verilog/pipeline example1/pipe_ex1.vcd
$date
	Wed May 17 22:40:16 2023
$end
$version
	Icarus Verilog
$end
$timescale
	1ns
$end
$scope module pipe_ex1_tb $end
$var wire 16 ! zout [15:0] $end
$var reg 8 " addr [7:0] $end
$var reg 1 # clk1 $end
$var reg 1 $ clk2 $end
$var reg 4 % func [3:0] $end
$var reg 4 & rd [3:0] $end
$var reg 4 ' rs1 [3:0] $end
$var reg 4 ( rs2 [3:0] $end
$var integer 32 ) k [31:0] $end
$scope module DUT $end
$var wire 8 * addr [7:0] $end
$var wire 1 # clk1 $end
$var wire 1 $ clk2 $end
$var wire 4 + func [3:0] $end
$var wire 4 , rd [3:0] $end
$var wire 4 - rs1 [3:0] $end
$var wire 4 . rs2 [3:0] $end
$var wire 16 / zout [15:0] $end
$var reg 16 0 L12_A [15:0] $end
$var reg 16 1 L12_B [15:0] $end
$var reg 8 2 L12_addr [7:0] $end
$var reg 4 3 L12_func [3:0] $end
$var reg 4 4 L12_rd [3:0] $end
$var reg 16 5 L23_Z [15:0] $end
$var reg 8 6 L23_addr [7:0] $end
$var reg 4 7 L23_rd [3:0] $end
$var reg 16 8 L34_Z [15:0] $end
$var reg 8 9 L34_addr [7:0] $end
$upscope $end
$upscope $end
$enddefinitions $end
#0
$dumpvars
bx 9
bx 8
bx 7
bx 6
bx 5
bx 4
bx 3
bx 2
bx 1
bx 0
bx /
bx .
bx -
bx ,
bx +
bx *
b10000 )
bx (
bx '
bx &
bx %
0$
0#
bx "
bx !
$end
#5
b1111101 "
b1111101 *
b0 %
b0 +
b1010 &
b1010 ,
b101 (
b101 .
b11 '
b11 -
1#
#7
b1111101 2
b0 3
b1010 4
b101 1
b11 0
#10
0#
#15
1$
#20
0$
#22
b1111101 6
b1010 7
b1000 5
#25
b1111101 9
1#
b1111110 "
b1111110 *
b10 %
b10 +
b1100 &
b1100 ,
b1000 (
b1000 .
#27
b1000 !
b1000 /
b1000 8
b1111110 2
b10 3
b1100 4
b1000 1
#30
0#
#35
1$
#40
0$
#42
b1111110 6
b1100 7
b11000 5
#45
b1111110 9
1#
b10000000 "
b10000000 *
b1 %
b1 +
b1110 &
b1110 ,
b101 (
b101 .
b1010 '
b1010 -
#47
b10000000 2
b1 3
b1110 4
b101 1
b1000 0
b11000 !
b11000 /
b11000 8
#50
0#
#55
1$
#60
0$
#62
b10000000 6
b1110 7
b11 5
#65
b10000000 9
1#
b1111111 "
b1111111 *
b1101 %
b1101 +
b1101 &
b1101 ,
b11 (
b11 .
b111 '
b111 -
#67
b11 !
b11 /
b11 8
b1111111 2
b1101 3
b1101 4
b11 1
b111 0
#70
0#
#75
1$
#80
0$
#82
b1111111 6
b1101 7
b1110 5
#85
b1111111 9
1#
b10000001 "
b10000001 *
b1 %
b1 +
b1111 &
b1111 ,
b101 (
b101 .
b1010 '
b1010 -
#87
b10000001 2
b1 3
b1111 4
b101 1
b1000 0
b1110 !
b1110 /
b1110 8
#90
0#
#95
1$
#100
0$
#102
b10000001 6
b1111 7
b11 5
#105
b10000001 9
1#
b10000010 "
b10000010 *
b0 %
b0 +
b0 &
b0 ,
b1101 (
b1101 .
b1100 '
b1100 -
#107
b11 !
b11 /
b11 8
b10000010 2
b0 3
b0 4
b1110 1
b11000 0
#110
0#
#115
1$
#120
0$
#122
b10000010 6
b0 7
b100110 5
#125
b10000010 9
1#
#127
b100110 !
b100110 /
b100110 8
#130
0#
#135
1$
#140
0$
#145
1#
#150
0#
#155
1$
#160
0$
#165
1#
b10000011 )
